…
**1. In a single pipeline for each condition, find all flights that meet the condition:** 

- Had an arrival delay of two or more hours


``` r
# Importing the dataset
library(nycflights13)

flights |> 
  filter(arr_delay >= 120) 
```

```
## # A tibble: 10,200 × 19
##     year month   day dep_time sched_dep_time dep_delay arr_time sched_arr_time
##    <int> <int> <int>    <int>          <int>     <dbl>    <int>          <int>
##  1  2013     1     1      811            630       101     1047            830
##  2  2013     1     1      848           1835       853     1001           1950
##  3  2013     1     1      957            733       144     1056            853
##  4  2013     1     1     1114            900       134     1447           1222
##  5  2013     1     1     1505           1310       115     1638           1431
##  6  2013     1     1     1525           1340       105     1831           1626
##  7  2013     1     1     1549           1445        64     1912           1656
##  8  2013     1     1     1558           1359       119     1718           1515
##  9  2013     1     1     1732           1630        62     2028           1825
## 10  2013     1     1     1803           1620       103     2008           1750
##    arr_delay carrier flight tailnum origin dest  air_time distance  hour minute
##        <dbl> <chr>    <int> <chr>   <chr>  <chr>    <dbl>    <dbl> <dbl>  <dbl>
##  1       137 MQ        4576 N531MQ  LGA    CLT        118      544     6     30
##  2       851 MQ        3944 N942MQ  JFK    BWI         41      184    18     35
##  3       123 UA         856 N534UA  EWR    BOS         37      200     7     33
##  4       145 UA        1086 N76502  LGA    IAH        248     1416     9      0
##  5       127 EV        4497 N17984  EWR    RIC         63      277    13     10
##  6       125 B6         525 N231JB  EWR    MCO        152      937    13     40
##  7       136 EV        4181 N21197  EWR    MCI        234     1092    14     45
##  8       123 EV        5712 N826AS  JFK    IAD         53      228    13     59
##  9       123 EV        4092 N16911  EWR    DAY        119      533    16     30
## 10       138 MQ        4622 N504MQ  LGA    BNA        154      764    16     20
##    time_hour          
##    <dttm>             
##  1 2013-01-01 06:00:00
##  2 2013-01-01 18:00:00
##  3 2013-01-01 07:00:00
##  4 2013-01-01 09:00:00
##  5 2013-01-01 13:00:00
##  6 2013-01-01 13:00:00
##  7 2013-01-01 14:00:00
##  8 2013-01-01 13:00:00
##  9 2013-01-01 16:00:00
## 10 2013-01-01 16:00:00
## # ℹ 10,190 more rows
```

- Flew to Houston (`IAH` or `HOU`)


``` r
flights |> 
  filter(dest %in% c("IAH", "HOU"))
```

```
## # A tibble: 9,313 × 19
##     year month   day dep_time sched_dep_time dep_delay arr_time sched_arr_time
##    <int> <int> <int>    <int>          <int>     <dbl>    <int>          <int>
##  1  2013     1     1      517            515         2      830            819
##  2  2013     1     1      533            529         4      850            830
##  3  2013     1     1      623            627        -4      933            932
##  4  2013     1     1      728            732        -4     1041           1038
##  5  2013     1     1      739            739         0     1104           1038
##  6  2013     1     1      908            908         0     1228           1219
##  7  2013     1     1     1028           1026         2     1350           1339
##  8  2013     1     1     1044           1045        -1     1352           1351
##  9  2013     1     1     1114            900       134     1447           1222
## 10  2013     1     1     1205           1200         5     1503           1505
##    arr_delay carrier flight tailnum origin dest  air_time distance  hour minute
##        <dbl> <chr>    <int> <chr>   <chr>  <chr>    <dbl>    <dbl> <dbl>  <dbl>
##  1        11 UA        1545 N14228  EWR    IAH        227     1400     5     15
##  2        20 UA        1714 N24211  LGA    IAH        227     1416     5     29
##  3         1 UA         496 N459UA  LGA    IAH        229     1416     6     27
##  4         3 UA         473 N488UA  LGA    IAH        238     1416     7     32
##  5        26 UA        1479 N37408  EWR    IAH        249     1400     7     39
##  6         9 UA        1220 N12216  EWR    IAH        233     1400     9      8
##  7        11 UA        1004 N76508  LGA    IAH        237     1416    10     26
##  8         1 UA         455 N667UA  EWR    IAH        229     1400    10     45
##  9       145 UA        1086 N76502  LGA    IAH        248     1416     9      0
## 10        -2 UA        1461 N39418  EWR    IAH        221     1400    12      0
##    time_hour          
##    <dttm>             
##  1 2013-01-01 05:00:00
##  2 2013-01-01 05:00:00
##  3 2013-01-01 06:00:00
##  4 2013-01-01 07:00:00
##  5 2013-01-01 07:00:00
##  6 2013-01-01 09:00:00
##  7 2013-01-01 10:00:00
##  8 2013-01-01 10:00:00
##  9 2013-01-01 09:00:00
## 10 2013-01-01 12:00:00
## # ℹ 9,303 more rows
```

- Were operated by United, American, or Delta


``` r
flights |> 
  filter(carrier %in% c("UA", "AA", "DL")) 
```

```
## # A tibble: 139,504 × 19
##     year month   day dep_time sched_dep_time dep_delay arr_time sched_arr_time
##    <int> <int> <int>    <int>          <int>     <dbl>    <int>          <int>
##  1  2013     1     1      517            515         2      830            819
##  2  2013     1     1      533            529         4      850            830
##  3  2013     1     1      542            540         2      923            850
##  4  2013     1     1      554            600        -6      812            837
##  5  2013     1     1      554            558        -4      740            728
##  6  2013     1     1      558            600        -2      753            745
##  7  2013     1     1      558            600        -2      924            917
##  8  2013     1     1      558            600        -2      923            937
##  9  2013     1     1      559            600        -1      941            910
## 10  2013     1     1      559            600        -1      854            902
##    arr_delay carrier flight tailnum origin dest  air_time distance  hour minute
##        <dbl> <chr>    <int> <chr>   <chr>  <chr>    <dbl>    <dbl> <dbl>  <dbl>
##  1        11 UA        1545 N14228  EWR    IAH        227     1400     5     15
##  2        20 UA        1714 N24211  LGA    IAH        227     1416     5     29
##  3        33 AA        1141 N619AA  JFK    MIA        160     1089     5     40
##  4       -25 DL         461 N668DN  LGA    ATL        116      762     6      0
##  5        12 UA        1696 N39463  EWR    ORD        150      719     5     58
##  6         8 AA         301 N3ALAA  LGA    ORD        138      733     6      0
##  7         7 UA         194 N29129  JFK    LAX        345     2475     6      0
##  8       -14 UA        1124 N53441  EWR    SFO        361     2565     6      0
##  9        31 AA         707 N3DUAA  LGA    DFW        257     1389     6      0
## 10        -8 UA        1187 N76515  EWR    LAS        337     2227     6      0
##    time_hour          
##    <dttm>             
##  1 2013-01-01 05:00:00
##  2 2013-01-01 05:00:00
##  3 2013-01-01 05:00:00
##  4 2013-01-01 06:00:00
##  5 2013-01-01 05:00:00
##  6 2013-01-01 06:00:00
##  7 2013-01-01 06:00:00
##  8 2013-01-01 06:00:00
##  9 2013-01-01 06:00:00
## 10 2013-01-01 06:00:00
## # ℹ 139,494 more rows
```

- Departed in summer (July, August, and September)


``` r
flights |> 
  filter(month %in% c(7, 8, 9)) 
```

```
## # A tibble: 86,326 × 19
##     year month   day dep_time sched_dep_time dep_delay arr_time sched_arr_time
##    <int> <int> <int>    <int>          <int>     <dbl>    <int>          <int>
##  1  2013     7     1        1           2029       212      236           2359
##  2  2013     7     1        2           2359         3      344            344
##  3  2013     7     1       29           2245       104      151              1
##  4  2013     7     1       43           2130       193      322             14
##  5  2013     7     1       44           2150       174      300            100
##  6  2013     7     1       46           2051       235      304           2358
##  7  2013     7     1       48           2001       287      308           2305
##  8  2013     7     1       58           2155       183      335             43
##  9  2013     7     1      100           2146       194      327             30
## 10  2013     7     1      100           2245       135      337            135
##    arr_delay carrier flight tailnum origin dest  air_time distance  hour minute
##        <dbl> <chr>    <int> <chr>   <chr>  <chr>    <dbl>    <dbl> <dbl>  <dbl>
##  1       157 B6         915 N653JB  JFK    SFO        315     2586    20     29
##  2         0 B6        1503 N805JB  JFK    SJU        200     1598    23     59
##  3       110 B6         234 N348JB  JFK    BTV         66      266    22     45
##  4       188 B6        1371 N794JB  LGA    FLL        143     1076    21     30
##  5       120 AA         185 N324AA  JFK    LAX        297     2475    21     50
##  6       186 B6         165 N640JB  JFK    PDX        304     2454    20     51
##  7       243 VX         415 N627VA  JFK    LAX        298     2475    20      1
##  8       172 B6         425 N535JB  JFK    TPA        140     1005    21     55
##  9       177 B6        1183 N531JB  JFK    MCO        126      944    21     46
## 10       122 B6         623 N663JB  JFK    LAX        304     2475    22     45
##    time_hour          
##    <dttm>             
##  1 2013-07-01 20:00:00
##  2 2013-07-01 23:00:00
##  3 2013-07-01 22:00:00
##  4 2013-07-01 21:00:00
##  5 2013-07-01 21:00:00
##  6 2013-07-01 20:00:00
##  7 2013-07-01 20:00:00
##  8 2013-07-01 21:00:00
##  9 2013-07-01 21:00:00
## 10 2013-07-01 22:00:00
## # ℹ 86,316 more rows
```

- Arrived more than two hours late but didn’t leave late


``` r
flights |> 
  filter(arr_delay > 120 & dep_delay <=0) 
```

```
## # A tibble: 29 × 19
##     year month   day dep_time sched_dep_time dep_delay arr_time sched_arr_time
##    <int> <int> <int>    <int>          <int>     <dbl>    <int>          <int>
##  1  2013     1    27     1419           1420        -1     1754           1550
##  2  2013    10     7     1350           1350         0     1736           1526
##  3  2013    10     7     1357           1359        -2     1858           1654
##  4  2013    10    16      657            700        -3     1258           1056
##  5  2013    11     1      658            700        -2     1329           1015
##  6  2013     3    18     1844           1847        -3       39           2219
##  7  2013     4    17     1635           1640        -5     2049           1845
##  8  2013     4    18      558            600        -2     1149            850
##  9  2013     4    18      655            700        -5     1213            950
## 10  2013     5    22     1827           1830        -3     2217           2010
##    arr_delay carrier flight tailnum origin dest  air_time distance  hour minute
##        <dbl> <chr>    <int> <chr>   <chr>  <chr>    <dbl>    <dbl> <dbl>  <dbl>
##  1       124 MQ        3728 N1EAMQ  EWR    ORD        135      719    14     20
##  2       130 EV        5181 N611QX  LGA    MSN        117      812    13     50
##  3       124 AA        1151 N3CMAA  LGA    DFW        192     1389    13     59
##  4       122 B6           3 N703JB  JFK    SJU        225     1598     7      0
##  5       194 VX         399 N629VA  JFK    LAX        336     2475     7      0
##  6       140 UA         389 N560UA  JFK    SFO        386     2586    18     47
##  7       124 MQ        4540 N721MQ  LGA    DTW        130      502    16     40
##  8       179 AA         707 N3EXAA  LGA    DFW        234     1389     6      0
##  9       143 AA        2083 N565AA  EWR    DFW        230     1372     7      0
## 10       127 MQ        4674 N518MQ  LGA    CLE         90      419    18     30
##    time_hour          
##    <dttm>             
##  1 2013-01-27 14:00:00
##  2 2013-10-07 13:00:00
##  3 2013-10-07 13:00:00
##  4 2013-10-16 07:00:00
##  5 2013-11-01 07:00:00
##  6 2013-03-18 18:00:00
##  7 2013-04-17 16:00:00
##  8 2013-04-18 06:00:00
##  9 2013-04-18 07:00:00
## 10 2013-05-22 18:00:00
## # ℹ 19 more rows
```

- Were delayed by at least an hour, but made up over 30 minutes in flight


``` r
flights |> 
  filter(dep_delay >= 60 & (dep_delay - arr_delay) > 30)
```

```
## # A tibble: 1,844 × 19
##     year month   day dep_time sched_dep_time dep_delay arr_time sched_arr_time
##    <int> <int> <int>    <int>          <int>     <dbl>    <int>          <int>
##  1  2013     1     1     2205           1720       285       46           2040
##  2  2013     1     1     2326           2130       116      131             18
##  3  2013     1     3     1503           1221       162     1803           1555
##  4  2013     1     3     1839           1700        99     2056           1950
##  5  2013     1     3     1850           1745        65     2148           2120
##  6  2013     1     3     1941           1759       102     2246           2139
##  7  2013     1     3     1950           1845        65     2228           2227
##  8  2013     1     3     2015           1915        60     2135           2111
##  9  2013     1     3     2257           2000       177       45           2224
## 10  2013     1     4     1917           1700       137     2135           1950
##    arr_delay carrier flight tailnum origin dest  air_time distance  hour minute
##        <dbl> <chr>    <int> <chr>   <chr>  <chr>    <dbl>    <dbl> <dbl>  <dbl>
##  1       246 AA        1999 N5DNAA  EWR    MIA        146     1085    17     20
##  2        73 B6         199 N594JB  JFK    LAS        290     2248    21     30
##  3       128 UA         551 N835UA  EWR    SFO        320     2565    12     21
##  4        66 AA         575 N631AA  JFK    EGE        239     1747    17      0
##  5        28 AA         177 N332AA  JFK    SFO        314     2586    17     45
##  6        67 UA         979 N402UA  EWR    PHX        274     2133    17     59
##  7         1 B6          91 N636JB  JFK    OAK        319     2576    18     45
##  8        24 9E        3525 N903XJ  JFK    ORD        110      740    19     15
##  9       141 9E        3439 N931XJ  JFK    CVG         90      589    20      0
## 10       105 AA         575 N5EUAA  JFK    EGE        239     1747    17      0
##    time_hour          
##    <dttm>             
##  1 2013-01-01 17:00:00
##  2 2013-01-01 21:00:00
##  3 2013-01-03 12:00:00
##  4 2013-01-03 17:00:00
##  5 2013-01-03 17:00:00
##  6 2013-01-03 17:00:00
##  7 2013-01-03 18:00:00
##  8 2013-01-03 19:00:00
##  9 2013-01-03 20:00:00
## 10 2013-01-04 17:00:00
## # ℹ 1,834 more rows
```


**2. Sort `flights` to find the flights with the longest departure delays. Find the flights that left earliest in the morning.**

Flight `HA 51` had the longest departure delay.


``` r
# Flight with longest departure delay
flights |> 
  arrange(desc(dep_delay))
```

```
## # A tibble: 336,776 × 19
##     year month   day dep_time sched_dep_time dep_delay arr_time sched_arr_time
##    <int> <int> <int>    <int>          <int>     <dbl>    <int>          <int>
##  1  2013     1     9      641            900      1301     1242           1530
##  2  2013     6    15     1432           1935      1137     1607           2120
##  3  2013     1    10     1121           1635      1126     1239           1810
##  4  2013     9    20     1139           1845      1014     1457           2210
##  5  2013     7    22      845           1600      1005     1044           1815
##  6  2013     4    10     1100           1900       960     1342           2211
##  7  2013     3    17     2321            810       911      135           1020
##  8  2013     6    27      959           1900       899     1236           2226
##  9  2013     7    22     2257            759       898      121           1026
## 10  2013    12     5      756           1700       896     1058           2020
##    arr_delay carrier flight tailnum origin dest  air_time distance  hour minute
##        <dbl> <chr>    <int> <chr>   <chr>  <chr>    <dbl>    <dbl> <dbl>  <dbl>
##  1      1272 HA          51 N384HA  JFK    HNL        640     4983     9      0
##  2      1127 MQ        3535 N504MQ  JFK    CMH         74      483    19     35
##  3      1109 MQ        3695 N517MQ  EWR    ORD        111      719    16     35
##  4      1007 AA         177 N338AA  JFK    SFO        354     2586    18     45
##  5       989 MQ        3075 N665MQ  JFK    CVG         96      589    16      0
##  6       931 DL        2391 N959DL  JFK    TPA        139     1005    19      0
##  7       915 DL        2119 N927DA  LGA    MSP        167     1020     8     10
##  8       850 DL        2007 N3762Y  JFK    PDX        313     2454    19      0
##  9       895 DL        2047 N6716C  LGA    ATL        109      762     7     59
## 10       878 AA         172 N5DMAA  EWR    MIA        149     1085    17      0
##    time_hour          
##    <dttm>             
##  1 2013-01-09 09:00:00
##  2 2013-06-15 19:00:00
##  3 2013-01-10 16:00:00
##  4 2013-09-20 18:00:00
##  5 2013-07-22 16:00:00
##  6 2013-04-10 19:00:00
##  7 2013-03-17 08:00:00
##  8 2013-06-27 19:00:00
##  9 2013-07-22 07:00:00
## 10 2013-12-05 17:00:00
## # ℹ 336,766 more rows
```
…
